R_Presentation
…
##  [1] "CODE"                "DATE"                "GENERATION"         
##  [4] "YEAR"                "LOCATION"            "TREE"               
##  [7] "TREE WRIENTATIWN"    "PLANT PART"          "TREATMENT"          
## [10] "INITIAL N1"          "SURVIVORS"           "PREDATED SCALES"    
## [13] "PARASITISED SCALES"  "MORTALITY"           "PARASITISM"         
## [16] "CORRECTED MORTALITY"

To understand how A. aurantii individuals predation affect the trees they prey on, lets take a look at the tree samples used in this study! What are their orientations and what parts of them were compared?

predation %>%
  select(TREE, `TREE WRIENTATIWN`, `PLANT PART`, TREATMENT) %>%
  filter(TREATMENT == "Predation") %>%
  arrange(`PLANT PART`)

## # A tibble: 228 x 4
##     TREE `TREE WRIENTATIWN` `PLANT PART` TREATMENT
##    <dbl> <chr>              <chr>        <chr>    
##  1     1 W                  Fruit        Predation
##  2     1 S                  Fruit        Predation
##  3     3 N                  Fruit        Predation
##  4     3 W                  Fruit        Predation
##  5     5 E                  Fruit        Predation
##  6     5 W                  Fruit        Predation
##  7     6 E                  Fruit        Predation
##  8     6 N                  Fruit        Predation
##  9     7 N                  Fruit        Predation
## 10     8 W                  Fruit        Predation
## #  with 218 more rows

What are the mortality and parasitism rates after A. aurantiis predation?

predation %>%
  select(TREE, TREATMENT, MORTALITY, PARASITISM) %>%
  filter(TREATMENT == "Predation") %>%
  arrange(-`MORTALITY`)

## # A tibble: 228 x 4
##     TREE TREATMENT MORTALITY PARASITISM
##    <dbl> <chr>         <dbl>      <dbl>
##  1     1 Predation       100        0  
##  2     6 Predation       100        0  
##  3     9 Predation       100        0  
##  4    11 Predation       100        0  
##  5     1 Predation       100        0  
##  6     3 Predation       100        9.1
##  7     5 Predation       100        0  
##  8     6 Predation       100        0  
##  9    10 Predation       100        0  
## 10     1 Predation       100        7.7
## #  with 218 more rows
…
